ABCD_SubMod_StatAnalysis_020326
…
# all corrected p-values (no filtering)
p_all_coc %>% arrange(outcome, term_std, brain)

## # A tibble: 156 × 6
##    outcome   brain     term                              p term_std        p_fdr
##    <chr>     <chr>     <chr>                         <dbl> <chr>           <dbl>
##  1 d_bpm_ext d_dmn_dmn age_baseline_year_1_arm_1 0.0000718 age_baseline… 1.17e-4
##  2 d_bpm_ext d_dmn_fpn age_baseline_year_1_arm_1 0.000114  age_baseline… 1.17e-4
##  3 d_bpm_ext d_dmn_sal age_baseline_year_1_arm_1 0.0000841 age_baseline… 1.17e-4
##  4 d_bpm_ext d_fpn_fpn age_baseline_year_1_arm_1 0.0000731 age_baseline… 1.17e-4
##  5 d_bpm_ext d_sal_fpn age_baseline_year_1_arm_1 0.000116  age_baseline… 1.17e-4
##  6 d_bpm_ext d_sal_sal age_baseline_year_1_arm_1 0.000117  age_baseline… 1.17e-4
##  7 d_bpm_ext d_dmn_dmn d_dmn_dmn                 0.605     brain         7.85e-1
##  8 d_bpm_ext d_dmn_fpn d_dmn_fpn                 0.675     brain         7.85e-1
##  9 d_bpm_ext d_dmn_sal d_dmn_sal                 0.785     brain         7.85e-1
## 10 d_bpm_ext d_fpn_fpn d_fpn_fpn                 0.276     brain         5.52e-1
## # ℹ 146 more rows

# significant only (optional)
p_all_coc %>% filter(p_fdr < .05) %>% arrange(outcome, term_std, p_fdr, brain)

## # A tibble: 35 × 6
##    outcome   brain     term                              p term_std        p_fdr
##    <chr>     <chr>     <chr>                         <dbl> <chr>           <dbl>
##  1 d_bpm_ext d_dmn_dmn age_baseline_year_1_arm_1 0.0000718 age_baseline… 1.17e-4
##  2 d_bpm_ext d_dmn_fpn age_baseline_year_1_arm_1 0.000114  age_baseline… 1.17e-4
##  3 d_bpm_ext d_dmn_sal age_baseline_year_1_arm_1 0.0000841 age_baseline… 1.17e-4
##  4 d_bpm_ext d_fpn_fpn age_baseline_year_1_arm_1 0.0000731 age_baseline… 1.17e-4
##  5 d_bpm_ext d_sal_fpn age_baseline_year_1_arm_1 0.000116  age_baseline… 1.17e-4
##  6 d_bpm_ext d_sal_sal age_baseline_year_1_arm_1 0.000117  age_baseline… 1.17e-4
##  7 d_bpm_ext d_sal_sal d_sal_sal:clust:sex       0.00339   brain:clust:… 2.03e-2
##  8 d_bpm_ext d_dmn_fpn d_dmn_fpn:clust:sex       0.00682   brain:clust:… 2.05e-2
##  9 d_bpm_ext d_dmn_dmn sex                       0.00981   sex           1.53e-2
## 10 d_bpm_ext d_fpn_fpn sex                       0.0102    sex           1.53e-2
## # ℹ 25 more rows
…
