ABCD_SubMod_StatAnalysis_020326
…
# -----------------------------
# 3) Run for internalizing and externalizing
# -----------------------------
mh_env_summ_int <- run_env_screen("bpm_int")
mh_env_summ_ext <- run_env_screen("bpm_ext")

mh_env_summ_int

## # A tibble: 90 × 11
##    Estimate Std..Error    df t.value `Pr(>|t|)` term         env   clust outcome
##       <dbl>      <dbl> <dbl>   <dbl>      <dbl> <chr>        <chr> <chr> <chr>  
##  1   0.529      0.0219 8620.   24.1   1.10e-124 `Negative l… Nega… 1     bpm_int
##  2   0.495      0.0207 8618.   23.9   2.55e-122 Discriminat… Disc… 1     bpm_int
##  3  -0.0327     0.0255 9505.   -1.28  2.00e-  1 `Traumatic … Trau… 1     bpm_int
##  4  -0.350      0.0171 9009.  -20.5   2.12e- 91 Parenting    Pare… 1     bpm_int
##  5  -0.447      0.0184 8799.  -24.3   8.11e-126 `Parental m… Pare… 1     bpm_int
##  6   0.281      0.0233 9066.   12.1   2.08e- 33 `Parent psy… Pare… 1     bpm_int
##  7   0.221      0.0252 9221.    8.79  1.75e- 18 `Other pare… Othe… 1     bpm_int
##  8   0.316      0.0183 9348.   17.3   2.61e- 66 `Family con… Fami… 1     bpm_int
##  9  -0.170      0.0208 9303.   -8.17  3.63e- 16 `Family coh… Fami… 1     bpm_int
## 10  -0.0524     0.0174 9527.   -3.01  2.62e-  3 `Family exp… Fami… 1     bpm_int
## # ℹ 80 more rows
## # ℹ 2 more variables: converged <lgl>, padj <dbl>

mh_env_summ_ext

## # A tibble: 90 × 11
##    Estimate Std..Error    df t.value `Pr(>|t|)` term         env   clust outcome
##       <dbl>      <dbl> <dbl>   <dbl>      <dbl> <chr>        <chr> <chr> <chr>  
##  1  0.408       0.0200 9079.  20.4    2.26e- 90 `Negative l… Nega… 1     bpm_ext
##  2  0.375       0.0189 9244.  19.8    1.42e- 85 Discriminat… Disc… 1     bpm_ext
##  3  0.0303      0.0232 9880.   1.31   1.90e-  1 `Traumatic … Trau… 1     bpm_ext
##  4 -0.431       0.0154 9025. -27.9    7.29e-165 Parenting    Pare… 1     bpm_ext
##  5 -0.454       0.0167 8986. -27.1    5.88e-156 `Parental m… Pare… 1     bpm_ext
##  6  0.270       0.0212 9395.  12.8    5.12e- 37 `Parent psy… Pare… 1     bpm_ext
##  7  0.164       0.0229 9583.   7.14   9.68e- 13 `Other pare… Othe… 1     bpm_ext
##  8  0.585       0.0163 8790.  35.8    2.50e-262 `Family con… Fami… 1     bpm_ext
##  9 -0.175       0.0189 9713.  -9.28   2.14e- 20 `Family coh… Fami… 1     bpm_ext
## 10  0.00609     0.0159 9916.   0.384  7.01e-  1 `Family exp… Fami… 1     bpm_ext
## # ℹ 80 more rows
## # ℹ 2 more variables: converged <lgl>, padj <dbl>
…
